<?xml version="1.0" encoding="UTF-8" standalone="no"?><svg xmlns="http://www.w3.org/2000/svg" xmlns:xlink="http://www.w3.org/1999/xlink" contentScriptType="application/ecmascript" contentStyleType="text/css" height="461.6px" preserveAspectRatio="none" style="width:721px;height:461px;" version="1.1" viewBox="0 0 721 461" width="721.6px" zoomAndPan="magnify"><defs><filter height="300%" id="f1n702f2bpoaah" width="300%" x="-1" y="-1"><feGaussianBlur result="blurOut" stdDeviation="1.6"/><feColorMatrix in="blurOut" result="blurOut2" type="matrix" values="0 0 0 0 0 0 0 0 0 0 0 0 0 0 0 0 0 0 .4 0"/><feOffset dx="3.2" dy="3.2" in="blurOut2" result="blurOut3"/><feBlend in="SourceGraphic" in2="blurOut3" mode="normal"/></filter></defs><g><text fill="#000000" font-family="sans-serif" font-size="14.4" lengthAdjust="spacingAndGlyphs" textLength="295.2" x="213.6" y="21.9219">UC7_SD_RegistarFreelancerComoUtilizador</text><rect fill="#FFFFFF" filter="url(#f1n702f2bpoaah)" height="305.7391" style="stroke: #A80036; stroke-width: 0.8;" width="8" x="68.8" y="103.5891"/><rect fill="#FFFFFF" filter="url(#f1n702f2bpoaah)" height="24" style="stroke: #A80036; stroke-width: 0.8;" width="8" x="263.2" y="225.9344"/><rect fill="#FFFFFF" filter="url(#f1n702f2bpoaah)" height="24" style="stroke: #A80036; stroke-width: 0.8;" width="8" x="263.2" y="320.8313"/><rect fill="#FFFFFF" filter="url(#f1n702f2bpoaah)" height="24" style="stroke: #A80036; stroke-width: 0.8;" width="8" x="353.2" y="131.0375"/><rect fill="#FFFFFF" filter="url(#f1n702f2bpoaah)" height="24" style="stroke: #A80036; stroke-width: 0.8;" width="8" x="353.2" y="178.4859"/><rect fill="#FFFFFF" filter="url(#f1n702f2bpoaah)" height="24" style="stroke: #A80036; stroke-width: 0.8;" width="8" x="486.4" y="273.3828"/><line style="stroke: #A80036; stroke-width: 0.8; stroke-dasharray: 5.0,5.0;" x1="72.8" x2="72.8" y1="72.1406" y2="416.5281"/><line style="stroke: #A80036; stroke-width: 0.8; stroke-dasharray: 5.0,5.0;" x1="267.2" x2="267.2" y1="72.1406" y2="416.5281"/><line style="stroke: #A80036; stroke-width: 0.8; stroke-dasharray: 5.0,5.0;" x1="356.8" x2="356.8" y1="72.1406" y2="416.5281"/><line style="stroke: #A80036; stroke-width: 0.8; stroke-dasharray: 5.0,5.0;" x1="490.4" x2="490.4" y1="72.1406" y2="416.5281"/><line style="stroke: #A80036; stroke-width: 0.8; stroke-dasharray: 5.0,5.0;" x1="648" x2="648" y1="72.1406" y2="416.5281"/><rect fill="#FEFECE" filter="url(#f1n702f2bpoaah)" height="24.3906" style="stroke: #A80036; stroke-width: 1.2000000000000002;" width="129.6" x="6.4" y="43.75"/><text fill="#000000" font-family="sans-serif" font-size="11.2" lengthAdjust="spacingAndGlyphs" textLength="118.4" x="12" y="60.1781">rfr: RegistoFreelancer</text><rect fill="#FEFECE" filter="url(#f1n702f2bpoaah)" height="24.3906" style="stroke: #A80036; stroke-width: 1.2000000000000002;" width="129.6" x="6.4" y="415.7281"/><text fill="#000000" font-family="sans-serif" font-size="11.2" lengthAdjust="spacingAndGlyphs" textLength="118.4" x="12" y="432.1563">rfr: RegistoFreelancer</text><rect fill="#FEFECE" filter="url(#f1n702f2bpoaah)" height="24.3906" style="stroke: #A80036; stroke-width: 1.2000000000000002;" width="73.6" x="228.8" y="43.75"/><text fill="#000000" font-family="sans-serif" font-size="11.2" lengthAdjust="spacingAndGlyphs" textLength="62.4" x="234.4" y="60.1781">:Plataforma</text><rect fill="#FEFECE" filter="url(#f1n702f2bpoaah)" height="24.3906" style="stroke: #A80036; stroke-width: 1.2000000000000002;" width="73.6" x="228.8" y="415.7281"/><text fill="#000000" font-family="sans-serif" font-size="11.2" lengthAdjust="spacingAndGlyphs" textLength="62.4" x="234.4" y="432.1563">:Plataforma</text><rect fill="#FEFECE" filter="url(#f1n702f2bpoaah)" height="24.3906" style="stroke: #A80036; stroke-width: 1.2000000000000002;" width="84" x="313.6" y="43.75"/><text fill="#000000" font-family="sans-serif" font-size="11.2" lengthAdjust="spacingAndGlyphs" textLength="72.8" x="319.2" y="60.1781">fr: Freelancer</text><rect fill="#FEFECE" filter="url(#f1n702f2bpoaah)" height="24.3906" style="stroke: #A80036; stroke-width: 1.2000000000000002;" width="84" x="313.6" y="415.7281"/><text fill="#000000" font-family="sans-serif" font-size="11.2" lengthAdjust="spacingAndGlyphs" textLength="72.8" x="319.2" y="432.1563">fr: Freelancer</text><rect fill="#FEFECE" filter="url(#f1n702f2bpoaah)" height="37.5813" style="stroke: #A80036; stroke-width: 1.2000000000000002;" width="160" x="408.8" y="30.5594"/><text fill="#000000" font-family="sans-serif" font-size="11.2" lengthAdjust="spacingAndGlyphs" textLength="83.2" x="447.2" y="46.9875">&lt;&lt;interface&gt;&gt;</text><text fill="#000000" font-family="sans-serif" font-size="11.2" lengthAdjust="spacingAndGlyphs" textLength="145.6" x="417.6" y="60.1781">alg: AlgoritmoGeradorPwd</text><rect fill="#FEFECE" filter="url(#f1n702f2bpoaah)" height="37.5813" style="stroke: #A80036; stroke-width: 1.2000000000000002;" width="160" x="408.8" y="415.7281"/><text fill="#000000" font-family="sans-serif" font-size="11.2" lengthAdjust="spacingAndGlyphs" textLength="83.2" x="447.2" y="432.1563">&lt;&lt;interface&gt;&gt;</text><text fill="#000000" font-family="sans-serif" font-size="11.2" lengthAdjust="spacingAndGlyphs" textLength="145.6" x="417.6" y="445.3469">alg: AlgoritmoGeradorPwd</text><rect fill="#FEFECE" filter="url(#f1n702f2bpoaah)" height="24.3906" style="stroke: #A80036; stroke-width: 1.2000000000000002;" width="132.8" x="580" y="43.75"/><text fill="#000000" font-family="sans-serif" font-size="11.2" lengthAdjust="spacingAndGlyphs" textLength="121.6" x="585.6" y="60.1781">af: AutorizacaoFacade</text><rect fill="#FEFECE" filter="url(#f1n702f2bpoaah)" height="24.3906" style="stroke: #A80036; stroke-width: 1.2000000000000002;" width="132.8" x="580" y="415.7281"/><text fill="#000000" font-family="sans-serif" font-size="11.2" lengthAdjust="spacingAndGlyphs" textLength="121.6" x="585.6" y="432.1563">af: AutorizacaoFacade</text><rect fill="#FFFFFF" filter="url(#f1n702f2bpoaah)" height="305.7391" style="stroke: #A80036; stroke-width: 0.8;" width="8" x="68.8" y="103.5891"/><rect fill="#FFFFFF" filter="url(#f1n702f2bpoaah)" height="24" style="stroke: #A80036; stroke-width: 0.8;" width="8" x="263.2" y="225.9344"/><rect fill="#FFFFFF" filter="url(#f1n702f2bpoaah)" height="24" style="stroke: #A80036; stroke-width: 0.8;" width="8" x="263.2" y="320.8313"/><rect fill="#FFFFFF" filter="url(#f1n702f2bpoaah)" height="24" style="stroke: #A80036; stroke-width: 0.8;" width="8" x="353.2" y="131.0375"/><rect fill="#FFFFFF" filter="url(#f1n702f2bpoaah)" height="24" style="stroke: #A80036; stroke-width: 0.8;" width="8" x="353.2" y="178.4859"/><rect fill="#FFFFFF" filter="url(#f1n702f2bpoaah)" height="24" style="stroke: #A80036; stroke-width: 0.8;" width="8" x="486.4" y="273.3828"/><line style="stroke: #A80036; stroke-width: 0.8;" x1="72.8" x2="110.4" y1="93.1891" y2="93.1891"/><line style="stroke: #A80036; stroke-width: 0.8;" x1="110.4" x2="110.4" y1="93.1891" y2="103.5891"/><line style="stroke: #A80036; stroke-width: 0.8;" x1="77.6" x2="110.4" y1="103.5891" y2="103.5891"/><polygon fill="#A80036" points="85.6,100.3891,77.6,103.5891,85.6,106.7891,82.4,103.5891" style="stroke: #A80036; stroke-width: 0.8;"/><text fill="#000000" font-family="sans-serif" font-size="10.4" font-weight="bold" lengthAdjust="spacingAndGlyphs" textLength="7.2" x="82.4" y="89.3953">1</text><text fill="#000000" font-family="sans-serif" font-size="10.4" lengthAdjust="spacingAndGlyphs" textLength="172.8" x="92.8" y="89.3953">RegistaFreelancerComoUtilizador()</text><polygon fill="#A80036" points="343.6,127.8375,351.6,131.0375,343.6,134.2375,346.8,131.0375" style="stroke: #A80036; stroke-width: 0.8;"/><line style="stroke: #A80036; stroke-width: 0.8;" x1="76.8" x2="348.4" y1="131.0375" y2="131.0375"/><text fill="#000000" font-family="sans-serif" font-size="10.4" font-weight="bold" lengthAdjust="spacingAndGlyphs" textLength="7.2" x="82.4" y="127.2438">2</text><text fill="#000000" font-family="sans-serif" font-size="10.4" lengthAdjust="spacingAndGlyphs" textLength="94.4" x="92.8" y="127.2438">nome = getNome()</text><polygon fill="#A80036" points="343.6,175.2859,351.6,178.4859,343.6,181.6859,346.8,178.4859" style="stroke: #A80036; stroke-width: 0.8;"/><line style="stroke: #A80036; stroke-width: 0.8;" x1="76.8" x2="348.4" y1="178.4859" y2="178.4859"/><text fill="#000000" font-family="sans-serif" font-size="10.4" font-weight="bold" lengthAdjust="spacingAndGlyphs" textLength="7.2" x="82.4" y="174.6922">3</text><text fill="#000000" font-family="sans-serif" font-size="10.4" lengthAdjust="spacingAndGlyphs" textLength="91.2" x="92.8" y="174.6922">email = getEmail()</text><polygon fill="#A80036" points="253.6,222.7344,261.6,225.9344,253.6,229.1344,256.8,225.9344" style="stroke: #A80036; stroke-width: 0.8;"/><line style="stroke: #A80036; stroke-width: 0.8;" x1="76.8" x2="258.4" y1="225.9344" y2="225.9344"/><text fill="#000000" font-family="sans-serif" font-size="10.4" font-weight="bold" lengthAdjust="spacingAndGlyphs" textLength="7.2" x="82.4" y="222.1406">4</text><text fill="#000000" font-family="sans-serif" font-size="10.4" lengthAdjust="spacingAndGlyphs" textLength="155.2" x="92.8" y="222.1406">alg=getAlgoritmoGeradorPwd()</text><polygon fill="#A80036" points="476.8,270.1828,484.8,273.3828,476.8,276.5828,480,273.3828" style="stroke: #A80036; stroke-width: 0.8;"/><line style="stroke: #A80036; stroke-width: 0.8;" x1="76.8" x2="481.6" y1="273.3828" y2="273.3828"/><text fill="#000000" font-family="sans-serif" font-size="10.4" font-weight="bold" lengthAdjust="spacingAndGlyphs" textLength="7.2" x="82.4" y="269.5891">5</text><text fill="#000000" font-family="sans-serif" font-size="10.4" lengthAdjust="spacingAndGlyphs" textLength="165.6" x="92.8" y="269.5891">pwd=geraPassword(nome, email)</text><polygon fill="#A80036" points="253.6,317.6313,261.6,320.8313,253.6,324.0313,256.8,320.8313" style="stroke: #A80036; stroke-width: 0.8;"/><line style="stroke: #A80036; stroke-width: 0.8;" x1="76.8" x2="258.4" y1="320.8313" y2="320.8313"/><text fill="#000000" font-family="sans-serif" font-size="10.4" font-weight="bold" lengthAdjust="spacingAndGlyphs" textLength="7.2" x="82.4" y="317.0375">6</text><text fill="#000000" font-family="sans-serif" font-size="10.4" lengthAdjust="spacingAndGlyphs" textLength="134.4" x="92.8" y="317.0375">af=getAutorizacaoFacade()</text><polygon fill="#A80036" points="638.4,365.0797,646.4,368.2797,638.4,371.4797,641.6,368.2797" style="stroke: #A80036; stroke-width: 0.8;"/><line style="stroke: #A80036; stroke-width: 0.8;" x1="76.8" x2="643.2" y1="368.2797" y2="368.2797"/><text fill="#000000" font-family="sans-serif" font-size="10.4" font-weight="bold" lengthAdjust="spacingAndGlyphs" textLength="7.2" x="82.4" y="364.4859">7</text><text fill="#000000" font-family="sans-serif" font-size="10.4" lengthAdjust="spacingAndGlyphs" textLength="302.4" x="92.8" y="364.4859">registaUtilizadorComPapeis(nome, email, pwd, ['Freelancer'])</text><line style="stroke: #A80036; stroke-width: 0.8;" x1="76.8" x2="110.4" y1="391.7281" y2="391.7281"/><line style="stroke: #A80036; stroke-width: 0.8;" x1="110.4" x2="110.4" y1="391.7281" y2="402.1281"/><line style="stroke: #A80036; stroke-width: 0.8;" x1="77.6" x2="110.4" y1="402.1281" y2="402.1281"/><polygon fill="#A80036" points="85.6,398.9281,77.6,402.1281,85.6,405.3281,82.4,402.1281" style="stroke: #A80036; stroke-width: 0.8;"/><text fill="#000000" font-family="sans-serif" font-size="10.4" font-weight="bold" lengthAdjust="spacingAndGlyphs" textLength="7.2" x="82.4" y="387.9344">8</text><text fill="#000000" font-family="sans-serif" font-size="10.4" lengthAdjust="spacingAndGlyphs" textLength="148.8" x="92.8" y="387.9344">enviaEmail(nome, email, pwd)</text><!--MD5=[2d439c99a51817693d91449df607c258]
@startuml
autonumber
title UC7_SD_RegistarFreelancerComoUtilizador
participant "rfr: RegistoFreelancer" as RF
participant ":Plataforma" as PLAT

participant "fr: Freelancer" as FR
participant "<<interface>>\n alg: AlgoritmoGeradorPwd" as PASS
participant "af: AutorizacaoFacade" as AF

RF -> RF: RegistaFreelancerComoUtilizador()

activate RF
RF -> FR: nome = getNome()
activate FR
deactivate FR

RF -> FR: email = getEmail()
activate FR
deactivate FR

RF -> PLAT: alg=getAlgoritmoGeradorPwd()
activate PLAT
deactivate PLAT

RF -> PASS: pwd=geraPassword(nome, email)
activate PASS
deactivate PASS

RF -> PLAT: af=getAutorizacaoFacade()
activate PLAT
deactivate PLAT

RF -> AF : registaUtilizadorComPapeis(nome, email, pwd, ['Freelancer'])
deactivate AF


RF -> RF : enviaEmail(nome, email, pwd)


@enduml

PlantUML version 1.2020.03beta6(Unknown compile time)
(GPL source distribution)
Java Runtime: OpenJDK Runtime Environment
JVM: OpenJDK 64-Bit Server VM
Java Version: 11.0.5+10-b520.38
Operating System: Mac OS X
Default Encoding: UTF-8
Language: en
Country: PT
--></g></svg>