<?xml version="1.0" encoding="UTF-8" standalone="no"?><svg xmlns="http://www.w3.org/2000/svg" xmlns:xlink="http://www.w3.org/1999/xlink" contentScriptType="application/ecmascript" contentStyleType="text/css" height="600.8px" preserveAspectRatio="none" style="width:1097px;height:600px;" version="1.1" viewBox="0 0 1097 600" width="1097.6px" zoomAndPan="magnify"><defs><filter height="300%" id="f19u0m4bk7hsmi" width="300%" x="-1" y="-1"><feGaussianBlur result="blurOut" stdDeviation="1.6"/><feColorMatrix in="blurOut" result="blurOut2" type="matrix" values="0 0 0 0 0 0 0 0 0 0 0 0 0 0 0 0 0 0 .4 0"/><feOffset dx="3.2" dy="3.2" in="blurOut2" result="blurOut3"/><feBlend in="SourceGraphic" in2="blurOut3" mode="normal"/></filter></defs><g><rect fill="#FFFFFF" filter="url(#f19u0m4bk7hsmi)" height="439.3172" style="stroke: #A80036; stroke-width: 0.8;" width="8" x="44.8" y="77.1906"/><rect fill="#FFFFFF" filter="url(#f19u0m4bk7hsmi)" height="35.6969" style="stroke: #A80036; stroke-width: 0.8;" width="8" x="279.2" y="94.2391"/><rect fill="#FFFFFF" filter="url(#f19u0m4bk7hsmi)" height="201.6328" style="stroke: #A80036; stroke-width: 0.8;" width="8" x="279.2" y="153.3844"/><rect fill="#FFFFFF" filter="url(#f19u0m4bk7hsmi)" height="138.0422" style="stroke: #A80036; stroke-width: 0.8;" width="8" x="279.2" y="378.4656"/><rect fill="#FFFFFF" filter="url(#f19u0m4bk7hsmi)" height="154.7359" style="stroke: #A80036; stroke-width: 0.8;" width="8" x="512" y="176.8328"/><rect fill="#FFFFFF" filter="url(#f19u0m4bk7hsmi)" height="85.5453" style="stroke: #A80036; stroke-width: 0.8;" width="8" x="512" y="401.9141"/><rect fill="#FFFFFF" filter="url(#f19u0m4bk7hsmi)" height="24" style="stroke: #A80036; stroke-width: 0.8;" width="8" x="708.8" y="200.2813"/><rect fill="#FFFFFF" filter="url(#f19u0m4bk7hsmi)" height="23.4484" style="stroke: #A80036; stroke-width: 0.8;" width="8" x="803.6" y="247.7297"/><rect fill="#FFFFFF" filter="url(#f19u0m4bk7hsmi)" height="24" style="stroke: #A80036; stroke-width: 0.8;" width="8" x="803.6" y="307.5688"/><rect fill="#FFFFFF" filter="url(#f19u0m4bk7hsmi)" height="62.0969" style="stroke: #A80036; stroke-width: 0.8;" width="8" x="803.6" y="425.3625"/><line style="stroke: #A80036; stroke-width: 0.8; stroke-dasharray: 5.0,5.0;" x1="48.8" x2="48.8" y1="69.1906" y2="530.9078"/><line style="stroke: #A80036; stroke-width: 0.8; stroke-dasharray: 5.0,5.0;" x1="283.2" x2="283.2" y1="69.1906" y2="530.9078"/><line style="stroke: #A80036; stroke-width: 0.8; stroke-dasharray: 5.0,5.0;" x1="516" x2="516" y1="69.1906" y2="530.9078"/><line style="stroke: #A80036; stroke-width: 0.8; stroke-dasharray: 5.0,5.0;" x1="712.8" x2="712.8" y1="69.1906" y2="530.9078"/><line style="stroke: #A80036; stroke-width: 0.8; stroke-dasharray: 5.0,5.0;" x1="807.2" x2="807.2" y1="69.1906" y2="530.9078"/><line style="stroke: #A80036; stroke-width: 0.8; stroke-dasharray: 5.0,5.0;" x1="1033.2" x2="1033.2" y1="280.325" y2="530.9078"/><text fill="#000000" font-family="sans-serif" font-size="11.2" lengthAdjust="spacingAndGlyphs" textLength="80" x="6.4" y="66.8281">Administrativo</text><ellipse cx="48.8" cy="10.4" fill="#FEFECE" filter="url(#f19u0m4bk7hsmi)" rx="6.4" ry="6.4" style="stroke: #A80036; stroke-width: 1.6;"/><path d="M48.8,16.8 L48.8,38.4 M38.4,23.2 L59.2,23.2 M48.8,38.4 L38.4,50.4 M48.8,38.4 L59.2,50.4 " fill="none" filter="url(#f19u0m4bk7hsmi)" style="stroke: #A80036; stroke-width: 1.6;"/><text fill="#000000" font-family="sans-serif" font-size="11.2" lengthAdjust="spacingAndGlyphs" textLength="80" x="6.4" y="540.9359">Administrativo</text><ellipse cx="48.8" cy="551.2984" fill="#FEFECE" filter="url(#f19u0m4bk7hsmi)" rx="6.4" ry="6.4" style="stroke: #A80036; stroke-width: 1.6;"/><path d="M48.8,557.6984 L48.8,579.2984 M38.4,564.0984 L59.2,564.0984 M48.8,579.2984 L38.4,591.2984 M48.8,579.2984 L59.2,591.2984 " fill="none" filter="url(#f19u0m4bk7hsmi)" style="stroke: #A80036; stroke-width: 1.6;"/><rect fill="#FEFECE" filter="url(#f19u0m4bk7hsmi)" height="24.3906" style="stroke: #A80036; stroke-width: 1.2000000000000002;" width="88" x="237.6" y="40.8"/><text fill="#000000" font-family="sans-serif" font-size="11.2" lengthAdjust="spacingAndGlyphs" textLength="76.8" x="243.2" y="57.2281">:DefinirAreaUI</text><rect fill="#FEFECE" filter="url(#f19u0m4bk7hsmi)" height="24.3906" style="stroke: #A80036; stroke-width: 1.2000000000000002;" width="88" x="237.6" y="530.1078"/><text fill="#000000" font-family="sans-serif" font-size="11.2" lengthAdjust="spacingAndGlyphs" textLength="76.8" x="243.2" y="546.5359">:DefinirAreaUI</text><rect fill="#FEFECE" filter="url(#f19u0m4bk7hsmi)" height="24.3906" style="stroke: #A80036; stroke-width: 1.2000000000000002;" width="132.8" x="448" y="40.8"/><text fill="#000000" font-family="sans-serif" font-size="11.2" lengthAdjust="spacingAndGlyphs" textLength="121.6" x="453.6" y="57.2281">:DefinirAreaController</text><rect fill="#FEFECE" filter="url(#f19u0m4bk7hsmi)" height="24.3906" style="stroke: #A80036; stroke-width: 1.2000000000000002;" width="132.8" x="448" y="530.1078"/><text fill="#000000" font-family="sans-serif" font-size="11.2" lengthAdjust="spacingAndGlyphs" textLength="121.6" x="453.6" y="546.5359">:DefinirAreaController</text><rect fill="#FEFECE" filter="url(#f19u0m4bk7hsmi)" height="24.3906" style="stroke: #A80036; stroke-width: 1.2000000000000002;" width="73.6" x="674.4" y="40.8"/><text fill="#000000" font-family="sans-serif" font-size="11.2" lengthAdjust="spacingAndGlyphs" textLength="62.4" x="680" y="57.2281">:Plataforma</text><rect fill="#FEFECE" filter="url(#f19u0m4bk7hsmi)" height="24.3906" style="stroke: #A80036; stroke-width: 1.2000000000000002;" width="73.6" x="674.4" y="530.1078"/><text fill="#000000" font-family="sans-serif" font-size="11.2" lengthAdjust="spacingAndGlyphs" textLength="62.4" x="680" y="546.5359">:Plataforma</text><rect fill="#FEFECE" filter="url(#f19u0m4bk7hsmi)" height="37.5813" style="stroke: #A80036; stroke-width: 1.2000000000000002;" width="93.6" x="759.2" y="27.6094"/><text fill="#000000" font-family="sans-serif" font-size="11.2" lengthAdjust="spacingAndGlyphs" textLength="62.4" x="774.8" y="44.0375">rat: Registo</text><text fill="#000000" font-family="sans-serif" font-size="11.2" lengthAdjust="spacingAndGlyphs" textLength="82.4" x="764.8" y="57.2281">AreasAtividade</text><rect fill="#FEFECE" filter="url(#f19u0m4bk7hsmi)" height="37.5813" style="stroke: #A80036; stroke-width: 1.2000000000000002;" width="93.6" x="759.2" y="530.1078"/><text fill="#000000" font-family="sans-serif" font-size="11.2" lengthAdjust="spacingAndGlyphs" textLength="62.4" x="774.8" y="546.5359">rat: Registo</text><text fill="#000000" font-family="sans-serif" font-size="11.2" lengthAdjust="spacingAndGlyphs" textLength="82.4" x="764.8" y="559.7266">AreasAtividade</text><rect fill="#FEFECE" filter="url(#f19u0m4bk7hsmi)" height="24.3906" style="stroke: #A80036; stroke-width: 1.2000000000000002;" width="115.2" x="974" y="530.1078"/><text fill="#000000" font-family="sans-serif" font-size="11.2" lengthAdjust="spacingAndGlyphs" textLength="104" x="979.6" y="546.5359">area:AreaAtividade</text><rect fill="#FFFFFF" filter="url(#f19u0m4bk7hsmi)" height="439.3172" style="stroke: #A80036; stroke-width: 0.8;" width="8" x="44.8" y="77.1906"/><rect fill="#FFFFFF" filter="url(#f19u0m4bk7hsmi)" height="35.6969" style="stroke: #A80036; stroke-width: 0.8;" width="8" x="279.2" y="94.2391"/><rect fill="#FFFFFF" filter="url(#f19u0m4bk7hsmi)" height="201.6328" style="stroke: #A80036; stroke-width: 0.8;" width="8" x="279.2" y="153.3844"/><rect fill="#FFFFFF" filter="url(#f19u0m4bk7hsmi)" height="138.0422" style="stroke: #A80036; stroke-width: 0.8;" width="8" x="279.2" y="378.4656"/><rect fill="#FFFFFF" filter="url(#f19u0m4bk7hsmi)" height="154.7359" style="stroke: #A80036; stroke-width: 0.8;" width="8" x="512" y="176.8328"/><rect fill="#FFFFFF" filter="url(#f19u0m4bk7hsmi)" height="85.5453" style="stroke: #A80036; stroke-width: 0.8;" width="8" x="512" y="401.9141"/><rect fill="#FFFFFF" filter="url(#f19u0m4bk7hsmi)" height="24" style="stroke: #A80036; stroke-width: 0.8;" width="8" x="708.8" y="200.2813"/><rect fill="#FFFFFF" filter="url(#f19u0m4bk7hsmi)" height="23.4484" style="stroke: #A80036; stroke-width: 0.8;" width="8" x="803.6" y="247.7297"/><rect fill="#FFFFFF" filter="url(#f19u0m4bk7hsmi)" height="24" style="stroke: #A80036; stroke-width: 0.8;" width="8" x="803.6" y="307.5688"/><rect fill="#FFFFFF" filter="url(#f19u0m4bk7hsmi)" height="62.0969" style="stroke: #A80036; stroke-width: 0.8;" width="8" x="803.6" y="425.3625"/><polygon fill="#A80036" points="269.6,91.0391,277.6,94.2391,269.6,97.4391,272.8,94.2391" style="stroke: #A80036; stroke-width: 0.8;"/><line style="stroke: #A80036; stroke-width: 0.8;" x1="52.8" x2="274.4" y1="94.2391" y2="94.2391"/><text fill="#000000" font-family="sans-serif" font-size="10.4" font-weight="bold" lengthAdjust="spacingAndGlyphs" textLength="7.2" x="58.4" y="90.4453">1</text><text fill="#000000" font-family="sans-serif" font-size="10.4" lengthAdjust="spacingAndGlyphs" textLength="112" x="68.8" y="90.4453">nova área de atividade</text><polygon fill="#A80036" points="61.6,126.7359,53.6,129.9359,61.6,133.1359,58.4,129.9359" style="stroke: #A80036; stroke-width: 0.8;"/><line style="stroke: #A80036; stroke-width: 0.8; stroke-dasharray: 2.0,2.0;" x1="56.8" x2="282.4" y1="129.9359" y2="129.9359"/><text fill="#000000" font-family="sans-serif" font-size="10.4" font-weight="bold" lengthAdjust="spacingAndGlyphs" textLength="7.2" x="66.4" y="120.018">2</text><text fill="#000000" font-family="sans-serif" font-size="10.4" lengthAdjust="spacingAndGlyphs" textLength="70.4" x="76.8" y="113.8938">solicita dados</text><text fill="#000000" font-family="sans-serif" font-size="10.4" lengthAdjust="spacingAndGlyphs" textLength="186.4" x="76.8" y="126.1422">(código, descrição breve e detalhada)</text><polygon fill="#A80036" points="269.6,150.1844,277.6,153.3844,269.6,156.5844,272.8,153.3844" style="stroke: #A80036; stroke-width: 0.8;"/><line style="stroke: #A80036; stroke-width: 0.8;" x1="52.8" x2="274.4" y1="153.3844" y2="153.3844"/><text fill="#000000" font-family="sans-serif" font-size="10.4" font-weight="bold" lengthAdjust="spacingAndGlyphs" textLength="7.2" x="58.4" y="149.5906">3</text><text fill="#000000" font-family="sans-serif" font-size="10.4" lengthAdjust="spacingAndGlyphs" textLength="149.6" x="68.8" y="149.5906">introduz os dados solicitados</text><polygon fill="#A80036" points="502.4,173.6328,510.4,176.8328,502.4,180.0328,505.6,176.8328" style="stroke: #A80036; stroke-width: 0.8;"/><line style="stroke: #A80036; stroke-width: 0.8;" x1="287.2" x2="507.2" y1="176.8328" y2="176.8328"/><text fill="#000000" font-family="sans-serif" font-size="10.4" font-weight="bold" lengthAdjust="spacingAndGlyphs" textLength="7.2" x="292.8" y="173.0391">4</text><text fill="#000000" font-family="sans-serif" font-size="10.4" lengthAdjust="spacingAndGlyphs" textLength="199.2" x="303.2" y="173.0391">novaAreaAtividade(cod, dsBreve, dsDet)</text><polygon fill="#A80036" points="699.2,197.0813,707.2,200.2813,699.2,203.4813,702.4,200.2813" style="stroke: #A80036; stroke-width: 0.8;"/><line style="stroke: #A80036; stroke-width: 0.8;" x1="520" x2="704" y1="200.2813" y2="200.2813"/><text fill="#000000" font-family="sans-serif" font-size="10.4" font-weight="bold" lengthAdjust="spacingAndGlyphs" textLength="7.2" x="525.6" y="196.4875">5</text><text fill="#000000" font-family="sans-serif" font-size="10.4" lengthAdjust="spacingAndGlyphs" textLength="163.2" x="536" y="196.4875">rat = getRegistoAreasAtividade()</text><polygon fill="#A80036" points="794,244.5297,802,247.7297,794,250.9297,797.2,247.7297" style="stroke: #A80036; stroke-width: 0.8;"/><line style="stroke: #A80036; stroke-width: 0.8;" x1="520" x2="798.8" y1="247.7297" y2="247.7297"/><text fill="#000000" font-family="sans-serif" font-size="10.4" font-weight="bold" lengthAdjust="spacingAndGlyphs" textLength="7.2" x="525.6" y="243.9359">6</text><text fill="#000000" font-family="sans-serif" font-size="10.4" lengthAdjust="spacingAndGlyphs" textLength="228" x="536" y="243.9359">area=novaAreaAtividade(cod, dsBreve, dsDet)</text><polygon fill="#A80036" points="964.4,267.9781,972.4,271.1781,964.4,274.3781,967.6,271.1781" style="stroke: #A80036; stroke-width: 0.8;"/><line style="stroke: #A80036; stroke-width: 0.8; stroke-dasharray: 2.0,2.0;" x1="807.6" x2="969.2" y1="271.1781" y2="271.1781"/><text fill="#000000" font-family="sans-serif" font-size="10.4" font-weight="bold" lengthAdjust="spacingAndGlyphs" textLength="7.2" x="813.2" y="267.3844">7</text><text fill="#000000" font-family="sans-serif" font-size="10.4" lengthAdjust="spacingAndGlyphs" textLength="132.8" x="823.6" y="267.3844">create(cod, dsBreve,dsDet)</text><rect fill="#FEFECE" filter="url(#f19u0m4bk7hsmi)" height="24.3906" style="stroke: #A80036; stroke-width: 1.2000000000000002;" width="115.2" x="974" y="254.1297"/><text fill="#000000" font-family="sans-serif" font-size="11.2" lengthAdjust="spacingAndGlyphs" textLength="104" x="979.6" y="270.5578">area:AreaAtividade</text><polygon fill="#A80036" points="794,304.3688,802,307.5688,794,310.7688,797.2,307.5688" style="stroke: #A80036; stroke-width: 0.8;"/><line style="stroke: #A80036; stroke-width: 0.8;" x1="520" x2="798.8" y1="307.5688" y2="307.5688"/><text fill="#000000" font-family="sans-serif" font-size="10.4" font-weight="bold" lengthAdjust="spacingAndGlyphs" textLength="7.2" x="525.6" y="303.775">8</text><text fill="#000000" font-family="sans-serif" font-size="10.4" lengthAdjust="spacingAndGlyphs" textLength="126.4" x="536" y="303.775">validaAreaAtividade(area)</text><polygon fill="#A80036" points="61.6,351.8172,53.6,355.0172,61.6,358.2172,58.4,355.0172" style="stroke: #A80036; stroke-width: 0.8;"/><line style="stroke: #A80036; stroke-width: 0.8; stroke-dasharray: 2.0,2.0;" x1="56.8" x2="282.4" y1="355.0172" y2="355.0172"/><text fill="#000000" font-family="sans-serif" font-size="10.4" font-weight="bold" lengthAdjust="spacingAndGlyphs" textLength="7.2" x="66.4" y="351.2234">9</text><text fill="#000000" font-family="sans-serif" font-size="10.4" lengthAdjust="spacingAndGlyphs" textLength="196.8" x="76.8" y="351.2234">apresenta dados e solicita confirmação</text><polygon fill="#A80036" points="269.6,375.2656,277.6,378.4656,269.6,381.6656,272.8,378.4656" style="stroke: #A80036; stroke-width: 0.8;"/><line style="stroke: #A80036; stroke-width: 0.8;" x1="52.8" x2="274.4" y1="378.4656" y2="378.4656"/><text fill="#000000" font-family="sans-serif" font-size="10.4" font-weight="bold" lengthAdjust="spacingAndGlyphs" textLength="14.4" x="58.4" y="374.6719">10</text><text fill="#000000" font-family="sans-serif" font-size="10.4" lengthAdjust="spacingAndGlyphs" textLength="44.8" x="76" y="374.6719">confirma</text><polygon fill="#A80036" points="502.4,398.7141,510.4,401.9141,502.4,405.1141,505.6,401.9141" style="stroke: #A80036; stroke-width: 0.8;"/><line style="stroke: #A80036; stroke-width: 0.8;" x1="287.2" x2="507.2" y1="401.9141" y2="401.9141"/><text fill="#000000" font-family="sans-serif" font-size="10.4" font-weight="bold" lengthAdjust="spacingAndGlyphs" textLength="14.4" x="292.8" y="398.1203">11</text><text fill="#000000" font-family="sans-serif" font-size="10.4" lengthAdjust="spacingAndGlyphs" textLength="110.4" x="310.4" y="398.1203">registaAreaAtividade()</text><polygon fill="#A80036" points="794,422.1625,802,425.3625,794,428.5625,797.2,425.3625" style="stroke: #A80036; stroke-width: 0.8;"/><line style="stroke: #A80036; stroke-width: 0.8;" x1="520" x2="798.8" y1="425.3625" y2="425.3625"/><text fill="#000000" font-family="sans-serif" font-size="10.4" font-weight="bold" lengthAdjust="spacingAndGlyphs" textLength="14.4" x="525.6" y="421.5688">12</text><text fill="#000000" font-family="sans-serif" font-size="10.4" lengthAdjust="spacingAndGlyphs" textLength="133.6" x="543.2" y="421.5688">registaAreaAtivadade(area)</text><line style="stroke: #A80036; stroke-width: 0.8;" x1="811.6" x2="845.2" y1="448.8109" y2="448.8109"/><line style="stroke: #A80036; stroke-width: 0.8;" x1="845.2" x2="845.2" y1="448.8109" y2="459.2109"/><line style="stroke: #A80036; stroke-width: 0.8;" x1="812.4" x2="845.2" y1="459.2109" y2="459.2109"/><polygon fill="#A80036" points="820.4,456.0109,812.4,459.2109,820.4,462.4109,817.2,459.2109" style="stroke: #A80036; stroke-width: 0.8;"/><text fill="#000000" font-family="sans-serif" font-size="10.4" font-weight="bold" lengthAdjust="spacingAndGlyphs" textLength="14.4" x="817.2" y="445.0172">13</text><text fill="#000000" font-family="sans-serif" font-size="10.4" lengthAdjust="spacingAndGlyphs" textLength="126.4" x="834.8" y="445.0172">validaAreaAtividade(area)</text><line style="stroke: #A80036; stroke-width: 0.8;" x1="811.6" x2="845.2" y1="486.6594" y2="486.6594"/><line style="stroke: #A80036; stroke-width: 0.8;" x1="845.2" x2="845.2" y1="486.6594" y2="497.0594"/><line style="stroke: #A80036; stroke-width: 0.8;" x1="807.6" x2="845.2" y1="497.0594" y2="497.0594"/><polygon fill="#A80036" points="815.6,493.8594,807.6,497.0594,815.6,500.2594,812.4,497.0594" style="stroke: #A80036; stroke-width: 0.8;"/><text fill="#000000" font-family="sans-serif" font-size="10.4" font-weight="bold" lengthAdjust="spacingAndGlyphs" textLength="14.4" x="817.2" y="482.8656">14</text><text fill="#000000" font-family="sans-serif" font-size="10.4" lengthAdjust="spacingAndGlyphs" textLength="115.2" x="834.8" y="482.8656">addAreaAtividade(area)</text><polygon fill="#A80036" points="57.6,513.3078,49.6,516.5078,57.6,519.7078,54.4,516.5078" style="stroke: #A80036; stroke-width: 0.8;"/><line style="stroke: #A80036; stroke-width: 0.8; stroke-dasharray: 2.0,2.0;" x1="52.8" x2="282.4" y1="516.5078" y2="516.5078"/><text fill="#000000" font-family="sans-serif" font-size="10.4" font-weight="bold" lengthAdjust="spacingAndGlyphs" textLength="14.4" x="62.4" y="512.7141">15</text><text fill="#000000" font-family="sans-serif" font-size="10.4" lengthAdjust="spacingAndGlyphs" textLength="118.4" x="80" y="512.7141">operação bem sucedida</text><!--MD5=[dffa9dc3e2bbab98d82f30fdde4fcd3d]
@startuml
autonumber
actor "Administrativo" as ADM

participant ":DefinirAreaUI" as UI
participant ":DefinirAreaController" as CTRL
participant ":Plataforma" as PLAT
participant "rat: Registo\nAreasAtividade" as REG_AT
participant "area:AreaAtividade" as AREA

activate ADM
ADM -> UI : nova área de atividade
activate UI
UI - -> ADM : solicita dados \n(código, descrição breve e detalhada)
deactivate UI

ADM -> UI : introduz os dados solicitados
activate UI
UI -> CTRL : novaAreaAtividade(cod, dsBreve, dsDet)
activate CTRL
CTRL -> PLAT: rat = getRegistoAreasAtividade()
activate PLAT
deactivate PLAT
CTRL -> REG_AT: area=novaAreaAtividade(cod, dsBreve, dsDet)
activate REG_AT
REG_AT - -> AREA ** : create(cod, dsBreve,dsDet)
deactivate REG_AT

CTRL -> REG_AT: validaAreaAtividade(area)
activate REG_AT
deactivate REG_AT

deactivate CTRL
UI - -> ADM : apresenta dados e solicita confirmação
deactivate UI

ADM -> UI : confirma
activate UI

UI -> CTRL: registaAreaAtividade()
activate CTRL
CTRL ->REG_AT: registaAreaAtivadade(area)
activate REG_AT
REG_AT -> REG_AT: validaAreaAtividade(area)
REG_AT -> REG_AT: addAreaAtividade(area)

deactivate REG_AT
deactivate CTRL

UI - -> ADM : operação bem sucedida
deactivate UI

deactivate ADM
@enduml

PlantUML version 1.2020.03beta6(Unknown compile time)
(GPL source distribution)
Java Runtime: OpenJDK Runtime Environment
JVM: OpenJDK 64-Bit Server VM
Java Version: 11.0.5+10-b520.38
Operating System: Mac OS X
Default Encoding: UTF-8
Language: en
Country: PT
--></g></svg>