<?xml version="1.0" encoding="UTF-8" standalone="no"?><svg xmlns="http://www.w3.org/2000/svg" xmlns:xlink="http://www.w3.org/1999/xlink" contentScriptType="application/ecmascript" contentStyleType="text/css" height="1020px" preserveAspectRatio="none" style="width:1979px;height:1020px;" version="1.1" viewBox="0 0 1979 1020" width="1979.2px" zoomAndPan="magnify"><defs><filter height="300%" id="f1onafmp3katvl" width="300%" x="-1" y="-1"><feGaussianBlur result="blurOut" stdDeviation="1.6"/><feColorMatrix in="blurOut" result="blurOut2" type="matrix" values="0 0 0 0 0 0 0 0 0 0 0 0 0 0 0 0 0 0 .4 0"/><feOffset dx="3.2" dy="3.2" in="blurOut2" result="blurOut3"/><feBlend in="SourceGraphic" in2="blurOut3" mode="normal"/></filter></defs><g><rect fill="#FFFFFF" filter="url(#f1onafmp3katvl)" height="859.2031" style="stroke: #A80036; stroke-width: 0.8;" width="8" x="56.8" y="77.1906"/><rect fill="#FFFFFF" filter="url(#f1onafmp3katvl)" height="35.6969" style="stroke: #A80036; stroke-width: 0.8;" width="8" x="412" y="94.2391"/><rect fill="#FFFFFF" filter="url(#f1onafmp3katvl)" height="141.7938" style="stroke: #A80036; stroke-width: 0.8;" width="8" x="412" y="153.3844"/><rect fill="#FFFFFF" filter="url(#f1onafmp3katvl)" height="283.8531" style="stroke: #A80036; stroke-width: 0.8;" width="8" x="412" y="318.6266"/><rect fill="#FFFFFF" filter="url(#f1onafmp3katvl)" height="148.975" style="stroke: #A80036; stroke-width: 0.8;" width="8" x="412" y="625.9281"/><rect fill="#FFFFFF" filter="url(#f1onafmp3katvl)" height="138.0422" style="stroke: #A80036; stroke-width: 0.8;" width="8" x="412" y="798.3516"/><rect fill="#FFFFFF" filter="url(#f1onafmp3katvl)" height="118.3453" style="stroke: #A80036; stroke-width: 0.8;" width="8" x="667.2" y="176.8328"/><rect fill="#FFFFFF" filter="url(#f1onafmp3katvl)" height="191.375" style="stroke: #A80036; stroke-width: 0.8;" width="8" x="667.2" y="342.075"/><rect fill="#FFFFFF" filter="url(#f1onafmp3katvl)" height="96.4781" style="stroke: #A80036; stroke-width: 0.8;" width="8" x="667.2" y="649.3766"/><rect fill="#FFFFFF" filter="url(#f1onafmp3katvl)" height="114.5938" style="stroke: #A80036; stroke-width: 0.8;" width="8" x="667.2" y="821.8"/><rect fill="#FFFFFF" filter="url(#f1onafmp3katvl)" height="24" style="stroke: #A80036; stroke-width: 0.8;" width="8" x="864" y="200.2813"/><rect fill="#FFFFFF" filter="url(#f1onafmp3katvl)" height="24" style="stroke: #A80036; stroke-width: 0.8;" width="8" x="864" y="412.9719"/><rect fill="#FFFFFF" filter="url(#f1onafmp3katvl)" height="24" style="stroke: #A80036; stroke-width: 0.8;" width="8" x="958.8" y="247.7297"/><rect fill="#FFFFFF" filter="url(#f1onafmp3katvl)" height="24" style="stroke: #A80036; stroke-width: 0.8;" width="8" x="958.8" y="365.5234"/><rect fill="#FFFFFF" filter="url(#f1onafmp3katvl)" height="73.0297" style="stroke: #A80036; stroke-width: 0.8;" width="8" x="1059.2" y="460.4203"/><rect fill="#FFFFFF" filter="url(#f1onafmp3katvl)" height="91.1453" style="stroke: #A80036; stroke-width: 0.8;" width="8" x="1059.2" y="845.2484"/><rect fill="#FFFFFF" filter="url(#f1onafmp3katvl)" height="41.5813" style="stroke: #A80036; stroke-width: 0.8;" width="8" x="1308" y="491.8688"/><rect fill="#FFFFFF" filter="url(#f1onafmp3katvl)" height="73.0297" style="stroke: #A80036; stroke-width: 0.8;" width="8" x="1308" y="672.825"/><rect fill="#FFFFFF" filter="url(#f1onafmp3katvl)" height="180.6719" style="stroke: #000000; stroke-width: 1.6;" width="1730.4" x="10.4" y="571.5828"/><line style="stroke: #A80036; stroke-width: 0.8; stroke-dasharray: 5.0,5.0;" x1="60.8" x2="60.8" y1="69.1906" y2="950.7938"/><line style="stroke: #A80036; stroke-width: 0.8; stroke-dasharray: 5.0,5.0;" x1="415.6" x2="415.6" y1="69.1906" y2="950.7938"/><line style="stroke: #A80036; stroke-width: 0.8; stroke-dasharray: 5.0,5.0;" x1="670.8" x2="670.8" y1="69.1906" y2="950.7938"/><line style="stroke: #A80036; stroke-width: 0.8; stroke-dasharray: 5.0,5.0;" x1="868" x2="868" y1="69.1906" y2="950.7938"/><line style="stroke: #A80036; stroke-width: 0.8; stroke-dasharray: 5.0,5.0;" x1="962.4" x2="962.4" y1="69.1906" y2="950.7938"/><line style="stroke: #A80036; stroke-width: 0.8; stroke-dasharray: 5.0,5.0;" x1="1063.2" x2="1063.2" y1="69.1906" y2="950.7938"/><line style="stroke: #A80036; stroke-width: 0.8; stroke-dasharray: 5.0,5.0;" x1="1312" x2="1312" y1="499.6109" y2="950.7938"/><line style="stroke: #A80036; stroke-width: 0.8; stroke-dasharray: 5.0,5.0;" x1="1528" x2="1528" y1="712.0156" y2="950.7938"/><line style="stroke: #A80036; stroke-width: 0.8; stroke-dasharray: 5.0,5.0;" x1="1660.8" x2="1660.8" y1="549.1922" y2="950.7938"/><line style="stroke: #A80036; stroke-width: 0.8; stroke-dasharray: 5.0,5.0;" x1="1805.6" x2="1805.6" y1="69.1906" y2="950.7938"/><line style="stroke: #A80036; stroke-width: 0.8; stroke-dasharray: 5.0,5.0;" x1="1926.4" x2="1926.4" y1="69.1906" y2="950.7938"/><text fill="#000000" font-family="sans-serif" font-size="11.2" lengthAdjust="spacingAndGlyphs" textLength="80" x="18.4" y="66.8281">Administrativo</text><ellipse cx="60.8" cy="10.4" fill="#FEFECE" filter="url(#f1onafmp3katvl)" rx="6.4" ry="6.4" style="stroke: #A80036; stroke-width: 1.6;"/><path d="M60.8,16.8 L60.8,38.4 M50.4,23.2 L71.2,23.2 M60.8,38.4 L50.4,50.4 M60.8,38.4 L71.2,50.4 " fill="none" filter="url(#f1onafmp3katvl)" style="stroke: #A80036; stroke-width: 1.6;"/><text fill="#000000" font-family="sans-serif" font-size="11.2" lengthAdjust="spacingAndGlyphs" textLength="80" x="18.4" y="960.8219">Administrativo</text><ellipse cx="60.8" cy="971.1844" fill="#FEFECE" filter="url(#f1onafmp3katvl)" rx="6.4" ry="6.4" style="stroke: #A80036; stroke-width: 1.6;"/><path d="M60.8,977.5844 L60.8,999.1844 M50.4,983.9844 L71.2,983.9844 M60.8,999.1844 L50.4,1011.1844 M60.8,999.1844 L71.2,1011.1844 " fill="none" filter="url(#f1onafmp3katvl)" style="stroke: #A80036; stroke-width: 1.6;"/><rect fill="#FEFECE" filter="url(#f1onafmp3katvl)" height="24.3906" style="stroke: #A80036; stroke-width: 1.2000000000000002;" width="197.6" x="315.6" y="40.8"/><text fill="#000000" font-family="sans-serif" font-size="11.2" lengthAdjust="spacingAndGlyphs" textLength="186.4" x="321.2" y="57.2281">:EspecificarCompetenciaTecnicaUI</text><rect fill="#FEFECE" filter="url(#f1onafmp3katvl)" height="24.3906" style="stroke: #A80036; stroke-width: 1.2000000000000002;" width="197.6" x="315.6" y="949.9938"/><text fill="#000000" font-family="sans-serif" font-size="11.2" lengthAdjust="spacingAndGlyphs" textLength="186.4" x="321.2" y="966.4219">:EspecificarCompetenciaTecnicaUI</text><rect fill="#FEFECE" filter="url(#f1onafmp3katvl)" height="24.3906" style="stroke: #A80036; stroke-width: 1.2000000000000002;" width="242.4" x="548.4" y="40.8"/><text fill="#000000" font-family="sans-serif" font-size="11.2" lengthAdjust="spacingAndGlyphs" textLength="231.2" x="554" y="57.2281">:EspecificarCompetenciaTecnicaController</text><rect fill="#FEFECE" filter="url(#f1onafmp3katvl)" height="24.3906" style="stroke: #A80036; stroke-width: 1.2000000000000002;" width="242.4" x="548.4" y="949.9938"/><text fill="#000000" font-family="sans-serif" font-size="11.2" lengthAdjust="spacingAndGlyphs" textLength="231.2" x="554" y="966.4219">:EspecificarCompetenciaTecnicaController</text><rect fill="#FEFECE" filter="url(#f1onafmp3katvl)" height="24.3906" style="stroke: #A80036; stroke-width: 1.2000000000000002;" width="73.6" x="829.6" y="40.8"/><text fill="#000000" font-family="sans-serif" font-size="11.2" lengthAdjust="spacingAndGlyphs" textLength="62.4" x="835.2" y="57.2281">:Plataforma</text><rect fill="#FEFECE" filter="url(#f1onafmp3katvl)" height="24.3906" style="stroke: #A80036; stroke-width: 1.2000000000000002;" width="73.6" x="829.6" y="949.9938"/><text fill="#000000" font-family="sans-serif" font-size="11.2" lengthAdjust="spacingAndGlyphs" textLength="62.4" x="835.2" y="966.4219">:Plataforma</text><rect fill="#FEFECE" filter="url(#f1onafmp3katvl)" height="37.5813" style="stroke: #A80036; stroke-width: 1.2000000000000002;" width="93.6" x="914.4" y="27.6094"/><text fill="#000000" font-family="sans-serif" font-size="11.2" lengthAdjust="spacingAndGlyphs" textLength="59.2" x="931.6" y="44.0375">rat:Registo</text><text fill="#000000" font-family="sans-serif" font-size="11.2" lengthAdjust="spacingAndGlyphs" textLength="82.4" x="920" y="57.2281">AreasAtividade</text><rect fill="#FEFECE" filter="url(#f1onafmp3katvl)" height="37.5813" style="stroke: #A80036; stroke-width: 1.2000000000000002;" width="93.6" x="914.4" y="949.9938"/><text fill="#000000" font-family="sans-serif" font-size="11.2" lengthAdjust="spacingAndGlyphs" textLength="59.2" x="931.6" y="966.4219">rat:Registo</text><text fill="#000000" font-family="sans-serif" font-size="11.2" lengthAdjust="spacingAndGlyphs" textLength="82.4" x="920" y="979.6125">AreasAtividade</text><rect fill="#FEFECE" filter="url(#f1onafmp3katvl)" height="24.3906" style="stroke: #A80036; stroke-width: 1.2000000000000002;" width="84.8" x="1019.2" y="40.8"/><text fill="#000000" font-family="sans-serif" font-size="11.2" lengthAdjust="spacingAndGlyphs" textLength="73.6" x="1024.8" y="57.2281">rct:RegistoCT</text><rect fill="#FEFECE" filter="url(#f1onafmp3katvl)" height="24.3906" style="stroke: #A80036; stroke-width: 1.2000000000000002;" width="84.8" x="1019.2" y="949.9938"/><text fill="#000000" font-family="sans-serif" font-size="11.2" lengthAdjust="spacingAndGlyphs" textLength="73.6" x="1024.8" y="966.4219">rct:RegistoCT</text><rect fill="#FEFECE" filter="url(#f1onafmp3katvl)" height="37.5813" style="stroke: #A80036; stroke-width: 1.2000000000000002;" width="128" x="1246.4" y="949.9938"/><text fill="#000000" font-family="sans-serif" font-size="11.2" lengthAdjust="spacingAndGlyphs" textLength="9.6" x="1305.6" y="966.4219">ct</text><text fill="#000000" font-family="sans-serif" font-size="11.2" lengthAdjust="spacingAndGlyphs" textLength="116.8" x="1252" y="979.6125">:CompetenciaTecnica</text><rect fill="#FEFECE" filter="url(#f1onafmp3katvl)" height="37.5813" style="stroke: #A80036; stroke-width: 1.2000000000000002;" width="104" x="1474.4" y="949.9938"/><text fill="#000000" font-family="sans-serif" font-size="11.2" lengthAdjust="spacingAndGlyphs" textLength="25.6" x="1513.6" y="966.4219">grau</text><text fill="#000000" font-family="sans-serif" font-size="11.2" lengthAdjust="spacingAndGlyphs" textLength="92.8" x="1480" y="979.6125">:GrauProficiencia</text><rect fill="#FEFECE" filter="url(#f1onafmp3katvl)" height="37.5813" style="stroke: #A80036; stroke-width: 1.2000000000000002;" width="140" x="1589.6" y="949.9938"/><text fill="#000000" font-family="sans-serif" font-size="11.2" lengthAdjust="spacingAndGlyphs" textLength="34.4" x="1642.4" y="966.4219">lgraus</text><text fill="#000000" font-family="sans-serif" font-size="11.2" lengthAdjust="spacingAndGlyphs" textLength="128.8" x="1595.2" y="979.6125">:List&lt;GrauProficiencia&gt;</text><rect fill="#FEFECE" filter="url(#f1onafmp3katvl)" height="37.5813" style="stroke: #A80036; stroke-width: 1.2000000000000002;" width="127.2" x="1740.8" y="27.6094"/><text fill="#000000" font-family="sans-serif" font-size="11.2" lengthAdjust="spacingAndGlyphs" textLength="9.6" x="1799.6" y="44.0375">la</text><text fill="#000000" font-family="sans-serif" font-size="11.2" lengthAdjust="spacingAndGlyphs" textLength="116" x="1746.4" y="57.2281">:List&lt;AreaAtividade&gt;</text><rect fill="#FEFECE" filter="url(#f1onafmp3katvl)" height="37.5813" style="stroke: #A80036; stroke-width: 1.2000000000000002;" width="127.2" x="1740.8" y="949.9938"/><text fill="#000000" font-family="sans-serif" font-size="11.2" lengthAdjust="spacingAndGlyphs" textLength="9.6" x="1799.6" y="966.4219">la</text><text fill="#000000" font-family="sans-serif" font-size="11.2" lengthAdjust="spacingAndGlyphs" textLength="116" x="1746.4" y="979.6125">:List&lt;AreaAtividade&gt;</text><rect fill="#FEFECE" filter="url(#f1onafmp3katvl)" height="37.5813" style="stroke: #A80036; stroke-width: 1.2000000000000002;" width="91.2" x="1879.2" y="27.6094"/><text fill="#000000" font-family="sans-serif" font-size="11.2" lengthAdjust="spacingAndGlyphs" textLength="10.4" x="1919.6" y="44.0375">at</text><text fill="#000000" font-family="sans-serif" font-size="11.2" lengthAdjust="spacingAndGlyphs" textLength="80" x="1884.8" y="57.2281">:AreaAtividade</text><rect fill="#FEFECE" filter="url(#f1onafmp3katvl)" height="37.5813" style="stroke: #A80036; stroke-width: 1.2000000000000002;" width="91.2" x="1879.2" y="949.9938"/><text fill="#000000" font-family="sans-serif" font-size="11.2" lengthAdjust="spacingAndGlyphs" textLength="10.4" x="1919.6" y="966.4219">at</text><text fill="#000000" font-family="sans-serif" font-size="11.2" lengthAdjust="spacingAndGlyphs" textLength="80" x="1884.8" y="979.6125">:AreaAtividade</text><rect fill="#FFFFFF" filter="url(#f1onafmp3katvl)" height="859.2031" style="stroke: #A80036; stroke-width: 0.8;" width="8" x="56.8" y="77.1906"/><rect fill="#FFFFFF" filter="url(#f1onafmp3katvl)" height="35.6969" style="stroke: #A80036; stroke-width: 0.8;" width="8" x="412" y="94.2391"/><rect fill="#FFFFFF" filter="url(#f1onafmp3katvl)" height="141.7938" style="stroke: #A80036; stroke-width: 0.8;" width="8" x="412" y="153.3844"/><rect fill="#FFFFFF" filter="url(#f1onafmp3katvl)" height="283.8531" style="stroke: #A80036; stroke-width: 0.8;" width="8" x="412" y="318.6266"/><rect fill="#FFFFFF" filter="url(#f1onafmp3katvl)" height="148.975" style="stroke: #A80036; stroke-width: 0.8;" width="8" x="412" y="625.9281"/><rect fill="#FFFFFF" filter="url(#f1onafmp3katvl)" height="138.0422" style="stroke: #A80036; stroke-width: 0.8;" width="8" x="412" y="798.3516"/><rect fill="#FFFFFF" filter="url(#f1onafmp3katvl)" height="118.3453" style="stroke: #A80036; stroke-width: 0.8;" width="8" x="667.2" y="176.8328"/><rect fill="#FFFFFF" filter="url(#f1onafmp3katvl)" height="191.375" style="stroke: #A80036; stroke-width: 0.8;" width="8" x="667.2" y="342.075"/><rect fill="#FFFFFF" filter="url(#f1onafmp3katvl)" height="96.4781" style="stroke: #A80036; stroke-width: 0.8;" width="8" x="667.2" y="649.3766"/><rect fill="#FFFFFF" filter="url(#f1onafmp3katvl)" height="114.5938" style="stroke: #A80036; stroke-width: 0.8;" width="8" x="667.2" y="821.8"/><rect fill="#FFFFFF" filter="url(#f1onafmp3katvl)" height="24" style="stroke: #A80036; stroke-width: 0.8;" width="8" x="864" y="200.2813"/><rect fill="#FFFFFF" filter="url(#f1onafmp3katvl)" height="24" style="stroke: #A80036; stroke-width: 0.8;" width="8" x="864" y="412.9719"/><rect fill="#FFFFFF" filter="url(#f1onafmp3katvl)" height="24" style="stroke: #A80036; stroke-width: 0.8;" width="8" x="958.8" y="247.7297"/><rect fill="#FFFFFF" filter="url(#f1onafmp3katvl)" height="24" style="stroke: #A80036; stroke-width: 0.8;" width="8" x="958.8" y="365.5234"/><rect fill="#FFFFFF" filter="url(#f1onafmp3katvl)" height="73.0297" style="stroke: #A80036; stroke-width: 0.8;" width="8" x="1059.2" y="460.4203"/><rect fill="#FFFFFF" filter="url(#f1onafmp3katvl)" height="91.1453" style="stroke: #A80036; stroke-width: 0.8;" width="8" x="1059.2" y="845.2484"/><rect fill="#FFFFFF" filter="url(#f1onafmp3katvl)" height="41.5813" style="stroke: #A80036; stroke-width: 0.8;" width="8" x="1308" y="491.8688"/><rect fill="#FFFFFF" filter="url(#f1onafmp3katvl)" height="73.0297" style="stroke: #A80036; stroke-width: 0.8;" width="8" x="1308" y="672.825"/><polygon fill="#A80036" points="402.4,91.0391,410.4,94.2391,402.4,97.4391,405.6,94.2391" style="stroke: #A80036; stroke-width: 0.8;"/><line style="stroke: #A80036; stroke-width: 0.8;" x1="64.8" x2="407.2" y1="94.2391" y2="94.2391"/><text fill="#000000" font-family="sans-serif" font-size="10.4" font-weight="bold" lengthAdjust="spacingAndGlyphs" textLength="7.2" x="70.4" y="90.4453">1</text><text fill="#000000" font-family="sans-serif" font-size="10.4" lengthAdjust="spacingAndGlyphs" textLength="253.6" x="80.8" y="90.4453">inicia a especificação de uma competência técnica</text><polygon fill="#A80036" points="73.6,126.7359,65.6,129.9359,73.6,133.1359,70.4,129.9359" style="stroke: #A80036; stroke-width: 0.8;"/><line style="stroke: #A80036; stroke-width: 0.8; stroke-dasharray: 2.0,2.0;" x1="68.8" x2="415.2" y1="129.9359" y2="129.9359"/><text fill="#000000" font-family="sans-serif" font-size="10.4" font-weight="bold" lengthAdjust="spacingAndGlyphs" textLength="7.2" x="78.4" y="120.018">2</text><text fill="#000000" font-family="sans-serif" font-size="10.4" lengthAdjust="spacingAndGlyphs" textLength="85.6" x="88.8" y="113.8938">solicita os dados</text><text fill="#000000" font-family="sans-serif" font-size="10.4" lengthAdjust="spacingAndGlyphs" textLength="217.6" x="88.8" y="126.1422">(código único, descrição breve e detalhada)</text><polygon fill="#A80036" points="402.4,150.1844,410.4,153.3844,402.4,156.5844,405.6,153.3844" style="stroke: #A80036; stroke-width: 0.8;"/><line style="stroke: #A80036; stroke-width: 0.8;" x1="64.8" x2="407.2" y1="153.3844" y2="153.3844"/><text fill="#000000" font-family="sans-serif" font-size="10.4" font-weight="bold" lengthAdjust="spacingAndGlyphs" textLength="7.2" x="70.4" y="149.5906">3</text><text fill="#000000" font-family="sans-serif" font-size="10.4" lengthAdjust="spacingAndGlyphs" textLength="149.6" x="80.8" y="149.5906">introduz os dados solicitados</text><polygon fill="#A80036" points="657.6,173.6328,665.6,176.8328,657.6,180.0328,660.8,176.8328" style="stroke: #A80036; stroke-width: 0.8;"/><line style="stroke: #A80036; stroke-width: 0.8;" x1="420" x2="662.4" y1="176.8328" y2="176.8328"/><text fill="#000000" font-family="sans-serif" font-size="10.4" font-weight="bold" lengthAdjust="spacingAndGlyphs" textLength="7.2" x="425.6" y="173.0391">4</text><text fill="#000000" font-family="sans-serif" font-size="10.4" lengthAdjust="spacingAndGlyphs" textLength="114.4" x="436" y="173.0391">la=getAreasAtividade()</text><polygon fill="#A80036" points="854.4,197.0813,862.4,200.2813,854.4,203.4813,857.6,200.2813" style="stroke: #A80036; stroke-width: 0.8;"/><line style="stroke: #A80036; stroke-width: 0.8;" x1="675.2" x2="859.2" y1="200.2813" y2="200.2813"/><text fill="#000000" font-family="sans-serif" font-size="10.4" font-weight="bold" lengthAdjust="spacingAndGlyphs" textLength="7.2" x="680.8" y="196.4875">5</text><text fill="#000000" font-family="sans-serif" font-size="10.4" lengthAdjust="spacingAndGlyphs" textLength="163.2" x="691.2" y="196.4875">rat = getRegistoAreasAtividade()</text><polygon fill="#A80036" points="949.2,244.5297,957.2,247.7297,949.2,250.9297,952.4,247.7297" style="stroke: #A80036; stroke-width: 0.8;"/><line style="stroke: #A80036; stroke-width: 0.8;" x1="675.2" x2="954" y1="247.7297" y2="247.7297"/><text fill="#000000" font-family="sans-serif" font-size="10.4" font-weight="bold" lengthAdjust="spacingAndGlyphs" textLength="7.2" x="680.8" y="243.9359">6</text><text fill="#000000" font-family="sans-serif" font-size="10.4" lengthAdjust="spacingAndGlyphs" textLength="114.4" x="691.2" y="243.9359">la=getAreasAtividade()</text><polygon fill="#A80036" points="73.6,291.9781,65.6,295.1781,73.6,298.3781,70.4,295.1781" style="stroke: #A80036; stroke-width: 0.8;"/><line style="stroke: #A80036; stroke-width: 0.8; stroke-dasharray: 2.0,2.0;" x1="68.8" x2="415.2" y1="295.1781" y2="295.1781"/><text fill="#000000" font-family="sans-serif" font-size="10.4" font-weight="bold" lengthAdjust="spacingAndGlyphs" textLength="7.2" x="78.4" y="291.3844">7</text><text fill="#000000" font-family="sans-serif" font-size="10.4" lengthAdjust="spacingAndGlyphs" textLength="317.6" x="88.8" y="291.3844">mostra a lista de áreas de atividade e pede para selecionar uma</text><polygon fill="#A80036" points="402.4,315.4266,410.4,318.6266,402.4,321.8266,405.6,318.6266" style="stroke: #A80036; stroke-width: 0.8;"/><line style="stroke: #A80036; stroke-width: 0.8;" x1="64.8" x2="407.2" y1="318.6266" y2="318.6266"/><text fill="#000000" font-family="sans-serif" font-size="10.4" font-weight="bold" lengthAdjust="spacingAndGlyphs" textLength="7.2" x="70.4" y="314.8328">8</text><text fill="#000000" font-family="sans-serif" font-size="10.4" lengthAdjust="spacingAndGlyphs" textLength="160" x="80.8" y="314.8328">seleciona uma área de atividade</text><polygon fill="#A80036" points="657.6,338.875,665.6,342.075,657.6,345.275,660.8,342.075" style="stroke: #A80036; stroke-width: 0.8;"/><line style="stroke: #A80036; stroke-width: 0.8;" x1="420" x2="662.4" y1="342.075" y2="342.075"/><text fill="#000000" font-family="sans-serif" font-size="10.4" font-weight="bold" lengthAdjust="spacingAndGlyphs" textLength="7.2" x="425.6" y="338.2813">9</text><text fill="#000000" font-family="sans-serif" font-size="10.4" lengthAdjust="spacingAndGlyphs" textLength="221.6" x="436" y="338.2813">novaCompetencia(cod,dsBreve,dsDet,atCod)</text><polygon fill="#A80036" points="949.2,362.3234,957.2,365.5234,949.2,368.7234,952.4,365.5234" style="stroke: #A80036; stroke-width: 0.8;"/><line style="stroke: #A80036; stroke-width: 0.8;" x1="675.2" x2="954" y1="365.5234" y2="365.5234"/><text fill="#000000" font-family="sans-serif" font-size="10.4" font-weight="bold" lengthAdjust="spacingAndGlyphs" textLength="14.4" x="680.8" y="361.7297">10</text><text fill="#000000" font-family="sans-serif" font-size="10.4" lengthAdjust="spacingAndGlyphs" textLength="170.4" x="698.4" y="361.7297">at=getAreaAtividadeByCod(atCod)</text><polygon fill="#A80036" points="854.4,409.7719,862.4,412.9719,854.4,416.1719,857.6,412.9719" style="stroke: #A80036; stroke-width: 0.8;"/><line style="stroke: #A80036; stroke-width: 0.8;" x1="675.2" x2="859.2" y1="412.9719" y2="412.9719"/><text fill="#000000" font-family="sans-serif" font-size="10.4" font-weight="bold" lengthAdjust="spacingAndGlyphs" textLength="14.4" x="680.8" y="409.1781">11</text><text fill="#000000" font-family="sans-serif" font-size="10.4" lengthAdjust="spacingAndGlyphs" textLength="95.2" x="698.4" y="409.1781">rct=getRegistoCT()</text><polygon fill="#A80036" points="1049.6,457.2203,1057.6,460.4203,1049.6,463.6203,1052.8,460.4203" style="stroke: #A80036; stroke-width: 0.8;"/><line style="stroke: #A80036; stroke-width: 0.8;" x1="675.2" x2="1054.4" y1="460.4203" y2="460.4203"/><text fill="#000000" font-family="sans-serif" font-size="10.4" font-weight="bold" lengthAdjust="spacingAndGlyphs" textLength="14.4" x="680.8" y="456.6266">12</text><text fill="#000000" font-family="sans-serif" font-size="10.4" lengthAdjust="spacingAndGlyphs" textLength="219.2" x="698.4" y="456.6266">ct=novaCompetencia(cod,dsBreve,dsDet,at)</text><polygon fill="#A80036" points="1236.8,480.6688,1244.8,483.8688,1236.8,487.0688,1240,483.8688" style="stroke: #A80036; stroke-width: 0.8;"/><line style="stroke: #A80036; stroke-width: 0.8; stroke-dasharray: 2.0,2.0;" x1="1067.2" x2="1241.6" y1="483.8688" y2="483.8688"/><text fill="#000000" font-family="sans-serif" font-size="10.4" font-weight="bold" lengthAdjust="spacingAndGlyphs" textLength="14.4" x="1072.8" y="480.075">13</text><text fill="#000000" font-family="sans-serif" font-size="10.4" lengthAdjust="spacingAndGlyphs" textLength="142.4" x="1090.4" y="480.075">create(cod,dsBreve,dsDet,at)</text><rect fill="#FEFECE" filter="url(#f1onafmp3katvl)" height="37.5813" style="stroke: #A80036; stroke-width: 1.2000000000000002;" width="128" x="1246.4" y="466.8203"/><text fill="#000000" font-family="sans-serif" font-size="11.2" lengthAdjust="spacingAndGlyphs" textLength="9.6" x="1305.6" y="483.2484">ct</text><text fill="#000000" font-family="sans-serif" font-size="11.2" lengthAdjust="spacingAndGlyphs" textLength="116.8" x="1252" y="496.4391">:CompetenciaTecnica</text><polygon fill="#A80036" points="1580,530.25,1588,533.45,1580,536.65,1583.2,533.45" style="stroke: #A80036; stroke-width: 0.8;"/><line style="stroke: #A80036; stroke-width: 0.8; stroke-dasharray: 2.0,2.0;" x1="1312" x2="1584.8" y1="533.45" y2="533.45"/><text fill="#000000" font-family="sans-serif" font-size="10.4" font-weight="bold" lengthAdjust="spacingAndGlyphs" textLength="14.4" x="1317.6" y="529.6563">14</text><text fill="#000000" font-family="sans-serif" font-size="10.4" lengthAdjust="spacingAndGlyphs" textLength="36.8" x="1335.2" y="529.6563">create()</text><rect fill="#FEFECE" filter="url(#f1onafmp3katvl)" height="37.5813" style="stroke: #A80036; stroke-width: 1.2000000000000002;" width="140" x="1589.6" y="516.4016"/><text fill="#000000" font-family="sans-serif" font-size="11.2" lengthAdjust="spacingAndGlyphs" textLength="34.4" x="1642.4" y="532.8297">lgraus</text><text fill="#000000" font-family="sans-serif" font-size="11.2" lengthAdjust="spacingAndGlyphs" textLength="128.8" x="1595.2" y="546.0203">:List&lt;GrauProficiencia&gt;</text><path d="M10.4,571.5828 L69.6,571.5828 L69.6,577.1828 L61.6,585.1828 L10.4,585.1828 L10.4,571.5828 " fill="#EEEEEE" style="stroke: #000000; stroke-width: 0.8;"/><rect fill="none" height="180.6719" style="stroke: #000000; stroke-width: 1.6;" width="1730.4" x="10.4" y="571.5828"/><text fill="#000000" font-family="sans-serif" font-size="10.4" font-weight="bold" lengthAdjust="spacingAndGlyphs" textLength="23.2" x="22.4" y="582.4375">loop</text><polygon fill="#A80036" points="73.6,599.2797,65.6,602.4797,73.6,605.6797,70.4,602.4797" style="stroke: #A80036; stroke-width: 0.8;"/><line style="stroke: #A80036; stroke-width: 0.8; stroke-dasharray: 2.0,2.0;" x1="68.8" x2="415.2" y1="602.4797" y2="602.4797"/><text fill="#000000" font-family="sans-serif" font-size="10.4" font-weight="bold" lengthAdjust="spacingAndGlyphs" textLength="14.4" x="78.4" y="598.6859">15</text><text fill="#000000" font-family="sans-serif" font-size="10.4" lengthAdjust="spacingAndGlyphs" textLength="247.2" x="96" y="598.6859">solicita os vários graus de proficiência aplicaveis</text><polygon fill="#A80036" points="402.4,622.7281,410.4,625.9281,402.4,629.1281,405.6,625.9281" style="stroke: #A80036; stroke-width: 0.8;"/><line style="stroke: #A80036; stroke-width: 0.8;" x1="64.8" x2="407.2" y1="625.9281" y2="625.9281"/><text fill="#000000" font-family="sans-serif" font-size="10.4" font-weight="bold" lengthAdjust="spacingAndGlyphs" textLength="14.4" x="70.4" y="622.1344">16</text><text fill="#000000" font-family="sans-serif" font-size="10.4" lengthAdjust="spacingAndGlyphs" textLength="158.4" x="88" y="622.1344">introduz os dados de cada grau</text><polygon fill="#A80036" points="657.6,646.1766,665.6,649.3766,657.6,652.5766,660.8,649.3766" style="stroke: #A80036; stroke-width: 0.8;"/><line style="stroke: #A80036; stroke-width: 0.8;" x1="420" x2="662.4" y1="649.3766" y2="649.3766"/><text fill="#000000" font-family="sans-serif" font-size="10.4" font-weight="bold" lengthAdjust="spacingAndGlyphs" textLength="14.4" x="425.6" y="645.5828">17</text><text fill="#000000" font-family="sans-serif" font-size="10.4" lengthAdjust="spacingAndGlyphs" textLength="194.4" x="443.2" y="645.5828">addGrauProficiencia(valor, designacao)</text><polygon fill="#A80036" points="1298.4,669.625,1306.4,672.825,1298.4,676.025,1301.6,672.825" style="stroke: #A80036; stroke-width: 0.8;"/><line style="stroke: #A80036; stroke-width: 0.8;" x1="675.2" x2="1303.2" y1="672.825" y2="672.825"/><text fill="#000000" font-family="sans-serif" font-size="10.4" font-weight="bold" lengthAdjust="spacingAndGlyphs" textLength="14.4" x="680.8" y="669.0313">18</text><text fill="#000000" font-family="sans-serif" font-size="10.4" lengthAdjust="spacingAndGlyphs" textLength="194.4" x="698.4" y="669.0313">addGrauProficiencia(valor, designacao)</text><polygon fill="#A80036" points="1464.8,693.0734,1472.8,696.2734,1464.8,699.4734,1468,696.2734" style="stroke: #A80036; stroke-width: 0.8;"/><line style="stroke: #A80036; stroke-width: 0.8;" x1="1316" x2="1469.6" y1="696.2734" y2="696.2734"/><text fill="#000000" font-family="sans-serif" font-size="10.4" font-weight="bold" lengthAdjust="spacingAndGlyphs" textLength="14.4" x="1321.6" y="692.4797">19</text><text fill="#000000" font-family="sans-serif" font-size="10.4" lengthAdjust="spacingAndGlyphs" textLength="121.6" x="1339.2" y="692.4797">create(valor,designacao)</text><rect fill="#FEFECE" filter="url(#f1onafmp3katvl)" height="37.5813" style="stroke: #A80036; stroke-width: 1.2000000000000002;" width="104" x="1474.4" y="679.225"/><text fill="#000000" font-family="sans-serif" font-size="11.2" lengthAdjust="spacingAndGlyphs" textLength="25.6" x="1513.6" y="695.6531">grau</text><text fill="#000000" font-family="sans-serif" font-size="11.2" lengthAdjust="spacingAndGlyphs" textLength="92.8" x="1480" y="708.8438">:GrauProficiencia</text><polygon fill="#A80036" points="1651.6,742.6547,1659.6,745.8547,1651.6,749.0547,1654.8,745.8547" style="stroke: #A80036; stroke-width: 0.8;"/><line style="stroke: #A80036; stroke-width: 0.8;" x1="1312" x2="1656.4" y1="745.8547" y2="745.8547"/><text fill="#000000" font-family="sans-serif" font-size="10.4" font-weight="bold" lengthAdjust="spacingAndGlyphs" textLength="14.4" x="1317.6" y="742.0609">20</text><text fill="#000000" font-family="sans-serif" font-size="10.4" lengthAdjust="spacingAndGlyphs" textLength="37.6" x="1335.2" y="742.0609">add(gp)</text><polygon fill="#A80036" points="73.6,771.7031,65.6,774.9031,73.6,778.1031,70.4,774.9031" style="stroke: #A80036; stroke-width: 0.8;"/><line style="stroke: #A80036; stroke-width: 0.8; stroke-dasharray: 2.0,2.0;" x1="68.8" x2="415.2" y1="774.9031" y2="774.9031"/><text fill="#000000" font-family="sans-serif" font-size="10.4" font-weight="bold" lengthAdjust="spacingAndGlyphs" textLength="14.4" x="78.4" y="771.1094">21</text><text fill="#000000" font-family="sans-serif" font-size="10.4" lengthAdjust="spacingAndGlyphs" textLength="212" x="96" y="771.1094">apresenta os dados e solicita confirmação</text><polygon fill="#A80036" points="402.4,795.1516,410.4,798.3516,402.4,801.5516,405.6,798.3516" style="stroke: #A80036; stroke-width: 0.8;"/><line style="stroke: #A80036; stroke-width: 0.8;" x1="64.8" x2="407.2" y1="798.3516" y2="798.3516"/><text fill="#000000" font-family="sans-serif" font-size="10.4" font-weight="bold" lengthAdjust="spacingAndGlyphs" textLength="14.4" x="70.4" y="794.5578">22</text><text fill="#000000" font-family="sans-serif" font-size="10.4" lengthAdjust="spacingAndGlyphs" textLength="93.6" x="88" y="794.5578">confirma os dados</text><polygon fill="#A80036" points="657.6,818.6,665.6,821.8,657.6,825,660.8,821.8" style="stroke: #A80036; stroke-width: 0.8;"/><line style="stroke: #A80036; stroke-width: 0.8;" x1="420" x2="662.4" y1="821.8" y2="821.8"/><text fill="#000000" font-family="sans-serif" font-size="10.4" font-weight="bold" lengthAdjust="spacingAndGlyphs" textLength="14.4" x="425.6" y="818.0063">23</text><text fill="#000000" font-family="sans-serif" font-size="10.4" lengthAdjust="spacingAndGlyphs" textLength="106.4" x="443.2" y="818.0063">registaCompetencia()</text><polygon fill="#A80036" points="1049.6,842.0484,1057.6,845.2484,1049.6,848.4484,1052.8,845.2484" style="stroke: #A80036; stroke-width: 0.8;"/><line style="stroke: #A80036; stroke-width: 0.8;" x1="675.2" x2="1054.4" y1="845.2484" y2="845.2484"/><text fill="#000000" font-family="sans-serif" font-size="10.4" font-weight="bold" lengthAdjust="spacingAndGlyphs" textLength="14.4" x="680.8" y="841.4547">24</text><text fill="#000000" font-family="sans-serif" font-size="10.4" lengthAdjust="spacingAndGlyphs" textLength="116" x="698.4" y="841.4547">registaCompetencia(ct)</text><line style="stroke: #A80036; stroke-width: 0.8;" x1="1067.2" x2="1100.8" y1="868.6969" y2="868.6969"/><line style="stroke: #A80036; stroke-width: 0.8;" x1="1100.8" x2="1100.8" y1="868.6969" y2="879.0969"/><line style="stroke: #A80036; stroke-width: 0.8;" x1="1068" x2="1100.8" y1="879.0969" y2="879.0969"/><polygon fill="#A80036" points="1076,875.8969,1068,879.0969,1076,882.2969,1072.8,879.0969" style="stroke: #A80036; stroke-width: 0.8;"/><text fill="#000000" font-family="sans-serif" font-size="10.4" font-weight="bold" lengthAdjust="spacingAndGlyphs" textLength="14.4" x="1072.8" y="864.9031">25</text><text fill="#000000" font-family="sans-serif" font-size="10.4" lengthAdjust="spacingAndGlyphs" textLength="111.2" x="1090.4" y="864.9031">validaCompetencia(ct)</text><line style="stroke: #A80036; stroke-width: 0.8;" x1="1067.2" x2="1100.8" y1="902.5453" y2="902.5453"/><line style="stroke: #A80036; stroke-width: 0.8;" x1="1100.8" x2="1100.8" y1="902.5453" y2="912.9453"/><line style="stroke: #A80036; stroke-width: 0.8;" x1="1068" x2="1100.8" y1="912.9453" y2="912.9453"/><polygon fill="#A80036" points="1076,909.7453,1068,912.9453,1076,916.1453,1072.8,912.9453" style="stroke: #A80036; stroke-width: 0.8;"/><text fill="#000000" font-family="sans-serif" font-size="10.4" font-weight="bold" lengthAdjust="spacingAndGlyphs" textLength="14.4" x="1072.8" y="898.7516">26</text><text fill="#000000" font-family="sans-serif" font-size="10.4" lengthAdjust="spacingAndGlyphs" textLength="100" x="1090.4" y="898.7516">addCompetencia(ct)</text><polygon fill="#A80036" points="69.6,933.1938,61.6,936.3938,69.6,939.5938,66.4,936.3938" style="stroke: #A80036; stroke-width: 0.8;"/><line style="stroke: #A80036; stroke-width: 0.8; stroke-dasharray: 2.0,2.0;" x1="64.8" x2="415.2" y1="936.3938" y2="936.3938"/><text fill="#000000" font-family="sans-serif" font-size="10.4" font-weight="bold" lengthAdjust="spacingAndGlyphs" textLength="14.4" x="74.4" y="932.6">27</text><text fill="#000000" font-family="sans-serif" font-size="10.4" lengthAdjust="spacingAndGlyphs" textLength="163.2" x="92" y="932.6">informa do sucesso da operação</text><!--MD5=[da5e53178138ae0b36269579fa6c23de]
@startuml
autonumber
actor "Administrativo" as ADM

participant ":EspecificarCompetenciaTecnicaUI" as UI
participant ":EspecificarCompetenciaTecnicaController" as CTRL
participant ":Plataforma" as PLAT
participant "rat:Registo\nAreasAtividade" as RAT
participant "rct:RegistoCT" as RCT
participant "ct\n:CompetenciaTecnica" as COMPETENCIA
participant "grau\n:GrauProficiencia" as GP
participant "lgraus\n:List<GrauProficiencia>" as LGRAUS
participant "la\n:List<AreaAtividade>" as LISTA_AREAS
participant "at\n:AreaAtividade" as AREA

activate ADM
ADM -> UI : inicia a especificação de uma competência técnica
activate UI
UI - -> ADM : solicita os dados \n(código único, descrição breve e detalhada)
deactivate UI

ADM -> UI : introduz os dados solicitados
activate UI

UI -> CTRL : la=getAreasAtividade()
activate CTRL

CTRL -> PLAT : rat = getRegistoAreasAtividade()
activate PLAT
deactivate PLAT

CTRL -> RAT : la=getAreasAtividade()
activate RAT
deactivate RAT

UI - -> ADM : mostra a lista de áreas de atividade e pede para selecionar uma
deactivate CTRL
deactivate UI

ADM -> UI : seleciona uma área de atividade
activate UI

UI -> CTRL : novaCompetencia(cod,dsBreve,dsDet,atCod)
activate CTRL

CTRL -> RAT: at=getAreaAtividadeByCod(atCod)
activate RAT
deactivate RAT

CTRL -> PLAT: rct=getRegistoCT()
activate PLAT
deactivate PLAT


CTRL -> RCT: ct=novaCompetencia(cod,dsBreve,dsDet,at)
activate RCT

RCT - -> COMPETENCIA**: create(cod,dsBreve,dsDet,at)
activate COMPETENCIA
COMPETENCIA - -> LGRAUS**: create()
deactivate COMPETENCIA
deactivate RCT
deactivate CTRL

loop
UI - -> ADM : solicita os vários graus de proficiência aplicaveis
deactivate UI

ADM -> UI : introduz os dados de cada grau
activate UI

UI -> CTRL :  addGrauProficiencia(valor, designacao)
activate CTRL

CTRL -> COMPETENCIA : addGrauProficiencia(valor, designacao)
activate COMPETENCIA

COMPETENCIA -> GP** : create(valor,designacao)

COMPETENCIA -> LGRAUS: add(gp)

deactivate COMPETENCIA
deactivate CTRL

end loop

UI - -> ADM : apresenta os dados e solicita confirmação
deactivate PLAT
deactivate CTRL
deactivate UI

ADM -> UI : confirma os dados
activate UI
UI -> CTRL : registaCompetencia()
activate CTRL

CTRL -> RCT : registaCompetencia(ct)
activate RCT

RCT -> RCT : validaCompetencia(ct)
RCT -> RCT : addCompetencia(ct)

UI - -> ADM : informa do sucesso da operação
deactivate RCT
deactivate CTRL
deactivate UI

deactivate ADM

@enduml

PlantUML version 1.2020.03beta6(Unknown compile time)
(GPL source distribution)
Java Runtime: OpenJDK Runtime Environment
JVM: OpenJDK 64-Bit Server VM
Java Version: 11.0.5+10-b520.38
Operating System: Mac OS X
Default Encoding: UTF-8
Language: en
Country: PT
--></g></svg>